0000.000 (0) Opened log file at time: Sat, 13 May 2017 10:08:14 +0000 on http://youngfoodies.co.uk
0000.001 (0) UpdraftPlus WordPress backup plugin (https://updraftplus.com): 2.12.40.21 WP: 4.7.4 PHP: 7.0.15-0ubuntu0.16.04.4 (fpm-fcgi, Linux panel.youngfoodies.co.uk 4.4.0-77-generic #98-Ubuntu SMP Wed Apr 26 08:34:02 UTC 2017 x86_64) MySQL: 5.7.18 WPLANG: en_GB Server: nginx/1.13.0 safe_mode: 0 max_execution_time: 900 memory_limit: 5000M (used: 22.7M | 4M) multisite: N openssl: OpenSSL 1.0.2g  1 Mar 2016 mcrypt: Y LANG:  ZipArchive::addFile: Y
0000.002 (0) Free space on disk containing Updraft's temporary directory: 89031.2 MB
0000.005 (0) Tasks: Backup files: 1 (schedule: weekly) Backup DB: 1 (schedule: weekly)
0000.007 (0) Requesting semaphore lock (fd) (apparently not via scheduler)
0000.010 (0) Set semaphore last lock (fd) time to 2017-05-13 10:08:14
0000.011 (0) Semaphore lock (fd) complete
0000.017 (0) Backup run: resumption=0, nonce=2ba4fb78b516, begun at=1494670094 (0s ago), job type=backup, label=Automatic backup before update
0000.033 (0) Scheduling a resumption (1) after 300 seconds (1494670394) in case this run gets aborted
0000.051 (0) Checking if we have a zip executable available
0000.053 (0) Testing: /usr/bin/zip
0000.066 (0) Output: zip warning: binziptest/test.zip not found or empty
0000.068 (0) Output: adding: binziptest/subdir1/	(in=0) (out=0) (stored 0%)
0000.069 (0) Output: adding: binziptest/subdir1/subdir2/	(in=0) (out=0) (stored 0%)
0000.070 (0) Output: adding: binziptest/subdir1/subdir2/test.html	(in=131) (out=107) (deflated 18%)
0000.071 (0) Output: total bytes=131, compressed=107 -> 18% savings
0000.077 (0) Output: adding: binziptest/subdir1/subdir2/test2.html	(in=138) (out=113) (deflated 18%)
0000.079 (0) Output: total bytes=269, compressed=220 -> 18% savings
0000.085 (0) Working binary zip found: /usr/bin/zip
0000.088 (0) Zip engine: found/will use a binary zip: /usr/bin/zip
0000.089 (0) Creation of backups of directories: beginning
0000.094 (0) Beginning creation of dump of plugins (split every: 400 MB)
0000.199 (0) Total entities for the zip file: 1433 directories, 9051 files (0 skipped as non-modified), 129.5 MB
0000.208 (0) Zip: backup_2017-05-13-1108_Young_Foodies_2ba4fb78b516-plugins.zip.tmp: 100 files added (on-disk size: 0 KB)
0000.210 (0) Zip: backup_2017-05-13-1108_Young_Foodies_2ba4fb78b516-plugins.zip.tmp: 200 files added (on-disk size: 0 KB)
0000.213 (0) Zip: backup_2017-05-13-1108_Young_Foodies_2ba4fb78b516-plugins.zip.tmp: 300 files added (on-disk size: 0 KB)
0000.216 (0) Zip: backup_2017-05-13-1108_Young_Foodies_2ba4fb78b516-plugins.zip.tmp: 400 files added (on-disk size: 0 KB)
0000.218 (0) Zip: backup_2017-05-13-1108_Young_Foodies_2ba4fb78b516-plugins.zip.tmp: 500 files added (on-disk size: 0 KB)
0000.225 (0) Adding batch to zip file (UpdraftPlus_BinZip): over 500 files added on this batch (14.8 MB, 9051 files batched, 501 (501) added so far); re-opening (prior size: 0 KB)
0000.745 (0) backup_2017-05-13-1108_Young_Foodies_2ba4fb78b516-plugins.zip.tmp: size is now: 7.90 MB
0000.748 (0) Zip: backup_2017-05-13-1108_Young_Foodies_2ba4fb78b516-plugins.zip.tmp: 600 files added (on-disk size: 8118.4 KB)
0000.752 (0) Zip: backup_2017-05-13-1108_Young_Foodies_2ba4fb78b516-plugins.zip.tmp: 700 files added (on-disk size: 8118.4 KB)
0000.754 (0) Zip: backup_2017-05-13-1108_Young_Foodies_2ba4fb78b516-plugins.zip.tmp: 800 files added (on-disk size: 8118.4 KB)
0000.757 (0) Zip: backup_2017-05-13-1108_Young_Foodies_2ba4fb78b516-plugins.zip.tmp: 900 files added (on-disk size: 8118.4 KB)
0000.759 (0) Zip: backup_2017-05-13-1108_Young_Foodies_2ba4fb78b516-plugins.zip.tmp: 1000 files added (on-disk size: 8118.4 KB)
0000.760 (0) Adding batch to zip file (UpdraftPlus_BinZip): over 500 files added on this batch (8.6 MB, 9051 files batched, 501 (1002) added so far); re-opening (prior size: 8118.4 KB)
0001.099 (0) backup_2017-05-13-1108_Young_Foodies_2ba4fb78b516-plugins.zip.tmp: size is now: 12.90 MB
0001.103 (0) Zip: backup_2017-05-13-1108_Young_Foodies_2ba4fb78b516-plugins.zip.tmp: 1100 files added (on-disk size: 13172.1 KB)
0001.106 (0) Zip: backup_2017-05-13-1108_Young_Foodies_2ba4fb78b516-plugins.zip.tmp: 1200 files added (on-disk size: 13172.1 KB)
0001.109 (0) Zip: backup_2017-05-13-1108_Young_Foodies_2ba4fb78b516-plugins.zip.tmp: 1300 files added (on-disk size: 13172.1 KB)
0001.111 (0) Zip: backup_2017-05-13-1108_Young_Foodies_2ba4fb78b516-plugins.zip.tmp: 1400 files added (on-disk size: 13172.1 KB)
0001.114 (0) Zip: backup_2017-05-13-1108_Young_Foodies_2ba4fb78b516-plugins.zip.tmp: 1500 files added (on-disk size: 13172.1 KB)
0001.115 (0) Adding batch to zip file (UpdraftPlus_BinZip): over 500 files added on this batch (4.9 MB, 9051 files batched, 501 (1503) added so far); re-opening (prior size: 13172.1 KB)
0001.370 (0) Zip: backup_2017-05-13-1108_Young_Foodies_2ba4fb78b516-plugins.zip.tmp: 1600 files added (on-disk size: 14558.7 KB)
0001.372 (0) Zip: backup_2017-05-13-1108_Young_Foodies_2ba4fb78b516-plugins.zip.tmp: 1700 files added (on-disk size: 14558.7 KB)
0001.375 (0) Zip: backup_2017-05-13-1108_Young_Foodies_2ba4fb78b516-plugins.zip.tmp: 1800 files added (on-disk size: 14558.7 KB)
0001.377 (0) Zip: backup_2017-05-13-1108_Young_Foodies_2ba4fb78b516-plugins.zip.tmp: 1900 files added (on-disk size: 14558.7 KB)
0001.380 (0) Zip: backup_2017-05-13-1108_Young_Foodies_2ba4fb78b516-plugins.zip.tmp: 2000 files added (on-disk size: 14558.7 KB)
0001.381 (0) Adding batch to zip file (UpdraftPlus_BinZip): over 500 files added on this batch (5.6 MB, 9051 files batched, 501 (2004) added so far); re-opening (prior size: 14558.7 KB)
0001.719 (0) Zip: backup_2017-05-13-1108_Young_Foodies_2ba4fb78b516-plugins.zip.tmp: 2100 files added (on-disk size: 16657.3 KB)
0001.721 (0) Zip: backup_2017-05-13-1108_Young_Foodies_2ba4fb78b516-plugins.zip.tmp: 2200 files added (on-disk size: 16657.3 KB)
0001.724 (0) Zip: backup_2017-05-13-1108_Young_Foodies_2ba4fb78b516-plugins.zip.tmp: 2300 files added (on-disk size: 16657.3 KB)
0001.727 (0) Zip: backup_2017-05-13-1108_Young_Foodies_2ba4fb78b516-plugins.zip.tmp: 2400 files added (on-disk size: 16657.3 KB)
0001.729 (0) Zip: backup_2017-05-13-1108_Young_Foodies_2ba4fb78b516-plugins.zip.tmp: 2500 files added (on-disk size: 16657.3 KB)
0001.730 (0) Adding batch to zip file (UpdraftPlus_BinZip): over 500 files added on this batch (4.8 MB, 9051 files batched, 501 (2505) added so far); re-opening (prior size: 16657.3 KB)
0002.131 (0) Zip: backup_2017-05-13-1108_Young_Foodies_2ba4fb78b516-plugins.zip.tmp: 2600 files added (on-disk size: 18522 KB)
0002.139 (0) Zip: backup_2017-05-13-1108_Young_Foodies_2ba4fb78b516-plugins.zip.tmp: 2700 files added (on-disk size: 18522 KB)
0002.142 (0) Zip: backup_2017-05-13-1108_Young_Foodies_2ba4fb78b516-plugins.zip.tmp: 2800 files added (on-disk size: 18522 KB)
0002.145 (0) Zip: backup_2017-05-13-1108_Young_Foodies_2ba4fb78b516-plugins.zip.tmp: 2900 files added (on-disk size: 18522 KB)
0002.147 (0) Zip: backup_2017-05-13-1108_Young_Foodies_2ba4fb78b516-plugins.zip.tmp: 3000 files added (on-disk size: 18522 KB)
0002.149 (0) Adding batch to zip file (UpdraftPlus_BinZip): over 500 files added on this batch (4.6 MB, 9051 files batched, 501 (3006) added so far); re-opening (prior size: 18522 KB)
0002.404 (0) Zip: backup_2017-05-13-1108_Young_Foodies_2ba4fb78b516-plugins.zip.tmp: 3100 files added (on-disk size: 20530.2 KB)
0002.407 (0) Zip: backup_2017-05-13-1108_Young_Foodies_2ba4fb78b516-plugins.zip.tmp: 3200 files added (on-disk size: 20530.2 KB)
0002.410 (0) Zip: backup_2017-05-13-1108_Young_Foodies_2ba4fb78b516-plugins.zip.tmp: 3300 files added (on-disk size: 20530.2 KB)
0002.412 (0) Zip: backup_2017-05-13-1108_Young_Foodies_2ba4fb78b516-plugins.zip.tmp: 3400 files added (on-disk size: 20530.2 KB)
0002.414 (0) Zip: backup_2017-05-13-1108_Young_Foodies_2ba4fb78b516-plugins.zip.tmp: 3500 files added (on-disk size: 20530.2 KB)
0002.416 (0) Adding batch to zip file (UpdraftPlus_BinZip): over 500 files added on this batch (1.8 MB, 9051 files batched, 501 (3507) added so far); re-opening (prior size: 20530.2 KB)
0002.584 (0) Zip: backup_2017-05-13-1108_Young_Foodies_2ba4fb78b516-plugins.zip.tmp: 3600 files added (on-disk size: 21295 KB)
0002.587 (0) Zip: backup_2017-05-13-1108_Young_Foodies_2ba4fb78b516-plugins.zip.tmp: 3700 files added (on-disk size: 21295 KB)
0002.590 (0) Zip: backup_2017-05-13-1108_Young_Foodies_2ba4fb78b516-plugins.zip.tmp: 3800 files added (on-disk size: 21295 KB)
0002.592 (0) Zip: backup_2017-05-13-1108_Young_Foodies_2ba4fb78b516-plugins.zip.tmp: 3900 files added (on-disk size: 21295 KB)
0002.596 (0) Zip: backup_2017-05-13-1108_Young_Foodies_2ba4fb78b516-plugins.zip.tmp: 4000 files added (on-disk size: 21295 KB)
0002.598 (0) Adding batch to zip file (UpdraftPlus_BinZip): over 500 files added on this batch (11.1 MB, 9051 files batched, 501 (4008) added so far); re-opening (prior size: 21295 KB)
0003.091 (0) Zip: backup_2017-05-13-1108_Young_Foodies_2ba4fb78b516-plugins.zip.tmp: 4100 files added (on-disk size: 23617.8 KB)
0003.094 (0) Zip: backup_2017-05-13-1108_Young_Foodies_2ba4fb78b516-plugins.zip.tmp: 4200 files added (on-disk size: 23617.8 KB)
0003.098 (0) Zip: backup_2017-05-13-1108_Young_Foodies_2ba4fb78b516-plugins.zip.tmp: 4300 files added (on-disk size: 23617.8 KB)
0003.100 (0) Zip: backup_2017-05-13-1108_Young_Foodies_2ba4fb78b516-plugins.zip.tmp: 4400 files added (on-disk size: 23617.8 KB)
0003.104 (0) Zip: backup_2017-05-13-1108_Young_Foodies_2ba4fb78b516-plugins.zip.tmp: 4500 files added (on-disk size: 23617.8 KB)
0003.105 (0) Adding batch to zip file (UpdraftPlus_BinZip): over 500 files added on this batch (5.9 MB, 9051 files batched, 501 (4509) added so far); re-opening (prior size: 23617.8 KB)
0003.449 (0) Zip: backup_2017-05-13-1108_Young_Foodies_2ba4fb78b516-plugins.zip.tmp: 4600 files added (on-disk size: 26356 KB)
0003.452 (0) Zip: backup_2017-05-13-1108_Young_Foodies_2ba4fb78b516-plugins.zip.tmp: 4700 files added (on-disk size: 26356 KB)
0003.454 (0) Zip: backup_2017-05-13-1108_Young_Foodies_2ba4fb78b516-plugins.zip.tmp: 4800 files added (on-disk size: 26356 KB)
0003.456 (0) Zip: backup_2017-05-13-1108_Young_Foodies_2ba4fb78b516-plugins.zip.tmp: 4900 files added (on-disk size: 26356 KB)
0003.459 (0) Zip: backup_2017-05-13-1108_Young_Foodies_2ba4fb78b516-plugins.zip.tmp: 5000 files added (on-disk size: 26356 KB)
0003.460 (0) Adding batch to zip file (UpdraftPlus_BinZip): over 500 files added on this batch (7.5 MB, 9051 files batched, 501 (5010) added so far); re-opening (prior size: 26356 KB)
0003.901 (0) Zip: backup_2017-05-13-1108_Young_Foodies_2ba4fb78b516-plugins.zip.tmp: 5100 files added (on-disk size: 28871.1 KB)
0003.904 (0) Zip: backup_2017-05-13-1108_Young_Foodies_2ba4fb78b516-plugins.zip.tmp: 5200 files added (on-disk size: 28871.1 KB)
0003.911 (0) Zip: backup_2017-05-13-1108_Young_Foodies_2ba4fb78b516-plugins.zip.tmp: 5300 files added (on-disk size: 28871.1 KB)
0003.920 (0) Zip: backup_2017-05-13-1108_Young_Foodies_2ba4fb78b516-plugins.zip.tmp: 5400 files added (on-disk size: 28871.1 KB)
0003.928 (0) Zip: backup_2017-05-13-1108_Young_Foodies_2ba4fb78b516-plugins.zip.tmp: 5500 files added (on-disk size: 28871.1 KB)
0003.930 (0) Adding batch to zip file (UpdraftPlus_BinZip): over 500 files added on this batch (7.2 MB, 9051 files batched, 501 (5511) added so far); re-opening (prior size: 28871.1 KB)
0004.408 (0) Zip: backup_2017-05-13-1108_Young_Foodies_2ba4fb78b516-plugins.zip.tmp: 5600 files added (on-disk size: 32028.4 KB)
0004.411 (0) Zip: backup_2017-05-13-1108_Young_Foodies_2ba4fb78b516-plugins.zip.tmp: 5700 files added (on-disk size: 32028.4 KB)
0004.413 (0) Zip: backup_2017-05-13-1108_Young_Foodies_2ba4fb78b516-plugins.zip.tmp: 5800 files added (on-disk size: 32028.4 KB)
0004.415 (0) Zip: backup_2017-05-13-1108_Young_Foodies_2ba4fb78b516-plugins.zip.tmp: 5900 files added (on-disk size: 32028.4 KB)
0004.417 (0) Zip: backup_2017-05-13-1108_Young_Foodies_2ba4fb78b516-plugins.zip.tmp: 6000 files added (on-disk size: 32028.4 KB)
0004.419 (0) Adding batch to zip file (UpdraftPlus_BinZip): over 500 files added on this batch (9.4 MB, 9051 files batched, 501 (6012) added so far); re-opening (prior size: 32028.4 KB)
0004.883 (0) Zip: backup_2017-05-13-1108_Young_Foodies_2ba4fb78b516-plugins.zip.tmp: 6100 files added (on-disk size: 37337.1 KB)
0004.886 (0) Zip: backup_2017-05-13-1108_Young_Foodies_2ba4fb78b516-plugins.zip.tmp: 6200 files added (on-disk size: 37337.1 KB)
0004.891 (0) Zip: backup_2017-05-13-1108_Young_Foodies_2ba4fb78b516-plugins.zip.tmp: 6300 files added (on-disk size: 37337.1 KB)
0004.894 (0) Zip: backup_2017-05-13-1108_Young_Foodies_2ba4fb78b516-plugins.zip.tmp: 6400 files added (on-disk size: 37337.1 KB)
0004.897 (0) Zip: backup_2017-05-13-1108_Young_Foodies_2ba4fb78b516-plugins.zip.tmp: 6500 files added (on-disk size: 37337.1 KB)
0004.898 (0) Adding batch to zip file (UpdraftPlus_BinZip): over 500 files added on this batch (4 MB, 9051 files batched, 501 (6513) added so far); re-opening (prior size: 37337.1 KB)
0005.221 (0) Zip: backup_2017-05-13-1108_Young_Foodies_2ba4fb78b516-plugins.zip.tmp: 6600 files added (on-disk size: 38906.5 KB)
0005.223 (0) Zip: backup_2017-05-13-1108_Young_Foodies_2ba4fb78b516-plugins.zip.tmp: 6700 files added (on-disk size: 38906.5 KB)
0005.226 (0) Zip: backup_2017-05-13-1108_Young_Foodies_2ba4fb78b516-plugins.zip.tmp: 6800 files added (on-disk size: 38906.5 KB)
0005.228 (0) Zip: backup_2017-05-13-1108_Young_Foodies_2ba4fb78b516-plugins.zip.tmp: 6900 files added (on-disk size: 38906.5 KB)
0005.230 (0) Zip: backup_2017-05-13-1108_Young_Foodies_2ba4fb78b516-plugins.zip.tmp: 7000 files added (on-disk size: 38906.5 KB)
0005.231 (0) Adding batch to zip file (UpdraftPlus_BinZip): over 500 files added on this batch (12.1 MB, 9051 files batched, 501 (7014) added so far); re-opening (prior size: 38906.5 KB)
0005.678 (0) Zip: backup_2017-05-13-1108_Young_Foodies_2ba4fb78b516-plugins.zip.tmp: 7100 files added (on-disk size: 42878.4 KB)
0005.681 (0) Zip: backup_2017-05-13-1108_Young_Foodies_2ba4fb78b516-plugins.zip.tmp: 7200 files added (on-disk size: 42878.4 KB)
0005.683 (0) Zip: backup_2017-05-13-1108_Young_Foodies_2ba4fb78b516-plugins.zip.tmp: 7300 files added (on-disk size: 42878.4 KB)
0005.685 (0) Zip: backup_2017-05-13-1108_Young_Foodies_2ba4fb78b516-plugins.zip.tmp: 7400 files added (on-disk size: 42878.4 KB)
0005.688 (0) Zip: backup_2017-05-13-1108_Young_Foodies_2ba4fb78b516-plugins.zip.tmp: 7500 files added (on-disk size: 42878.4 KB)
0005.689 (0) Adding batch to zip file (UpdraftPlus_BinZip): over 500 files added on this batch (1.4 MB, 9051 files batched, 501 (7515) added so far); re-opening (prior size: 42878.4 KB)
0005.832 (0) Zip: backup_2017-05-13-1108_Young_Foodies_2ba4fb78b516-plugins.zip.tmp: 7600 files added (on-disk size: 43972.3 KB)
0005.835 (0) Zip: backup_2017-05-13-1108_Young_Foodies_2ba4fb78b516-plugins.zip.tmp: 7700 files added (on-disk size: 43972.3 KB)
0005.839 (0) Zip: backup_2017-05-13-1108_Young_Foodies_2ba4fb78b516-plugins.zip.tmp: 7800 files added (on-disk size: 43972.3 KB)
0005.843 (0) Zip: backup_2017-05-13-1108_Young_Foodies_2ba4fb78b516-plugins.zip.tmp: 7900 files added (on-disk size: 43972.3 KB)
0005.847 (0) Zip: backup_2017-05-13-1108_Young_Foodies_2ba4fb78b516-plugins.zip.tmp: 8000 files added (on-disk size: 43972.3 KB)
0005.849 (0) Adding batch to zip file (UpdraftPlus_BinZip): over 500 files added on this batch (3.8 MB, 9051 files batched, 501 (8016) added so far); re-opening (prior size: 43972.3 KB)
0006.285 (0) Zip: backup_2017-05-13-1108_Young_Foodies_2ba4fb78b516-plugins.zip.tmp: 8100 files added (on-disk size: 45787.5 KB)
0006.295 (0) Zip: backup_2017-05-13-1108_Young_Foodies_2ba4fb78b516-plugins.zip.tmp: 8200 files added (on-disk size: 45787.5 KB)
0006.306 (0) Zip: backup_2017-05-13-1108_Young_Foodies_2ba4fb78b516-plugins.zip.tmp: 8300 files added (on-disk size: 45787.5 KB)
0006.315 (0) Zip: backup_2017-05-13-1108_Young_Foodies_2ba4fb78b516-plugins.zip.tmp: 8400 files added (on-disk size: 45787.5 KB)
0006.318 (0) Zip: backup_2017-05-13-1108_Young_Foodies_2ba4fb78b516-plugins.zip.tmp: 8500 files added (on-disk size: 45787.5 KB)
0006.320 (0) Adding batch to zip file (UpdraftPlus_BinZip): over 500 files added on this batch (14 MB, 9051 files batched, 501 (8517) added so far); re-opening (prior size: 45787.5 KB)
0007.209 (0) Zip: backup_2017-05-13-1108_Young_Foodies_2ba4fb78b516-plugins.zip.tmp: 8600 files added (on-disk size: 50365.5 KB)
0007.211 (0) Zip: backup_2017-05-13-1108_Young_Foodies_2ba4fb78b516-plugins.zip.tmp: 8700 files added (on-disk size: 50365.5 KB)
0007.214 (0) Zip: backup_2017-05-13-1108_Young_Foodies_2ba4fb78b516-plugins.zip.tmp: 8800 files added (on-disk size: 50365.5 KB)
0007.216 (0) Zip: backup_2017-05-13-1108_Young_Foodies_2ba4fb78b516-plugins.zip.tmp: 8900 files added (on-disk size: 50365.5 KB)
0007.220 (0) Zip: backup_2017-05-13-1108_Young_Foodies_2ba4fb78b516-plugins.zip.tmp: 9000 files added (on-disk size: 50365.5 KB)
0007.222 (0) Adding batch to zip file (UpdraftPlus_BinZip): over 500 files added on this batch (7.8 MB, 9051 files batched, 501 (9018) added so far); re-opening (prior size: 50365.5 KB)
0008.373 (0) Created plugins zip (0) - 54699.8 KB in 8.3 s (6608.5 KB/s) (sha1: fd566b2a4d7897c1940fff8d64ea1a9f2ed1da70, sha256: a7eb69c59ba7157b58ec2c8d26fb1a7816cfc0884b4074851e85cec2d8262e74)
0008.374 (0) No backup of themes: excluded by user's options
0008.377 (0) No backup of uploads: excluded by user's options
0008.378 (0) No backup of wpcore: excluded by user's options
0008.379 (0) No backup of others: excluded by user's options
0008.380 (0) No backup of more: excluded by user's options
0008.390 (0) Saving backup status to database (elements: 2)
0008.394 (0) Beginning creation of database dump (WordPress DB)
0008.397 (0) Testing: /usr/bin/mysqldump
0008.416 (0) Output: /*!40103 SET @OLD_TIME_ZONE=@@TIME_ZONE */;\n/*!40103 SET TIME_ZONE='+00:00' */;\n/*!40014 SET @OLD_UNIQUE_CHECKS=@@UNIQUE_CHECKS, UNIQUE_CHECKS=0 */;\n/*!40014 SET @OLD_FOREIGN_KEY_CHECKS=@@FOREIGN_KEY_CHECKS, FOREIGN_KEY_CHECKS=0 */;\n/*!40101 SET @OLD_SQL_MODE=@@SQL_MODE, SQL_MODE='NO_AUTO_VALUE_ON_ZERO' */;\n/*!40111 SET @OLD_SQL_NOTES=@@SQL_NOTES, SQL_NOTES=0 */;\nDROP TABLE IF EXISTS `wp_options`;\n/*!40101 SET @saved_cs_client     = @@character_set_client */;\n/*!40101 SET character_set_client = utf8 */;\nCRE (truncated - 1077 bytes total)
0008.418 (0) Working binary mysqldump found: /usr/bin/mysqldump
0008.426 (0) Table wp_options: Total expected rows (approximate): 1074
0008.473 (0) Table wp_options: Total rows added: 1087 in 0.05 seconds
0008.476 (0) Table wp_options: finishing file (backup_2017-05-13-1108_Young_Foodies_2ba4fb78b516-db-table-wp_options.table.gz - 169.4 KB)
0008.480 (0) Table wp_users: Total expected rows (approximate): 21
0008.482 (0) Table wp_users: Total rows added: 22 in 0.00 seconds
0008.483 (0) Table wp_users: finishing file (backup_2017-05-13-1108_Young_Foodies_2ba4fb78b516-db-table-wp_users.table.gz - 2 KB)
0008.486 (0) Table wp_usermeta: Total expected rows (approximate): 565
0008.492 (0) Table wp_usermeta: Total rows added: 583 in 0.01 seconds
0008.494 (0) Table wp_usermeta: finishing file (backup_2017-05-13-1108_Young_Foodies_2ba4fb78b516-db-table-wp_usermeta.table.gz - 12.5 KB)
0008.498 (0) Table wp_commentmeta: Total expected rows (approximate): 5
0008.500 (0) Table wp_commentmeta: Total rows added: 7 in 0.00 seconds
0008.501 (0) Table wp_commentmeta: finishing file (backup_2017-05-13-1108_Young_Foodies_2ba4fb78b516-db-table-wp_commentmeta.table.gz - 0.4 KB)
0008.505 (0) Table wp_comments: Total expected rows (approximate): 8
0008.507 (0) Table wp_comments: Total rows added: 13 in 0.00 seconds
0008.508 (0) Table wp_comments: finishing file (backup_2017-05-13-1108_Young_Foodies_2ba4fb78b516-db-table-wp_comments.table.gz - 1.3 KB)
0008.512 (0) Table wp_links: Total expected rows (approximate): 0
0008.517 (0) Table wp_links: Total rows added: 0 in 0.00 seconds
0008.519 (0) Table wp_links: finishing file (backup_2017-05-13-1108_Young_Foodies_2ba4fb78b516-db-table-wp_links.table.gz - 0.4 KB)
0008.524 (0) Table wp_postmeta: Total expected rows (approximate): 10978
0009.530 (0) Table wp_postmeta: binary mysqldump finished (writes: 69) in 1.00 seconds
0009.533 (0) Table wp_postmeta: finishing file (backup_2017-05-13-1108_Young_Foodies_2ba4fb78b516-db-table-wp_postmeta.table.gz - 963.2 KB)
0009.538 (0) Table wp_posts: Total expected rows (approximate): 2903
0010.006 (0) Table wp_posts: Total rows added: 2041 in 0.47 seconds
0010.008 (0) Table wp_posts: finishing file (backup_2017-05-13-1108_Young_Foodies_2ba4fb78b516-db-table-wp_posts.table.gz - 625.2 KB)
0010.013 (0) Table wp_signups: Total expected rows (approximate): 2
0010.015 (0) Table wp_signups: Total rows added: 2 in 0.00 seconds
0010.017 (0) Table wp_signups: finishing file (backup_2017-05-13-1108_Young_Foodies_2ba4fb78b516-db-table-wp_signups.table.gz - 0.9 KB)
0010.023 (0) Table wp_term_relationships: Total expected rows (approximate): 156
0010.026 (0) Table wp_term_relationships: Total rows added: 219 in 0.00 seconds
0010.028 (0) Table wp_term_relationships: finishing file (backup_2017-05-13-1108_Young_Foodies_2ba4fb78b516-db-table-wp_term_relationships.table.gz - 1 KB)
0010.037 (0) Table wp_term_taxonomy: Total expected rows (approximate): 85
0010.041 (0) Table wp_term_taxonomy: Total rows added: 90 in 0.00 seconds
0010.043 (0) Table wp_term_taxonomy: finishing file (backup_2017-05-13-1108_Young_Foodies_2ba4fb78b516-db-table-wp_term_taxonomy.table.gz - 1.3 KB)
0010.048 (0) Table wp_termmeta: Total expected rows (approximate): 0
0010.050 (0) Table wp_termmeta: Total rows added: 0 in 0.00 seconds
0010.051 (0) Table wp_termmeta: finishing file (backup_2017-05-13-1108_Young_Foodies_2ba4fb78b516-db-table-wp_termmeta.table.gz - 0.3 KB)
0010.055 (0) Table wp_terms: Total expected rows (approximate): 85
0010.057 (0) Table wp_terms: Total rows added: 90 in 0.00 seconds
0010.058 (0) Table wp_terms: finishing file (backup_2017-05-13-1108_Young_Foodies_2ba4fb78b516-db-table-wp_terms.table.gz - 1.5 KB)
0010.064 (0) Table wp_alm: Total expected rows (approximate): 1
0010.067 (0) Table wp_alm: Total rows added: 1 in 0.00 seconds
0010.069 (0) Table wp_alm: finishing file (backup_2017-05-13-1108_Young_Foodies_2ba4fb78b516-db-table-wp_alm.table.gz - 0.4 KB)
0010.073 (0) Table wp_bp_activity: Total expected rows (approximate): 41
0010.077 (0) Table wp_bp_activity: Total rows added: 65 in 0.00 seconds
0010.081 (0) Table wp_bp_activity: finishing file (backup_2017-05-13-1108_Young_Foodies_2ba4fb78b516-db-table-wp_bp_activity.table.gz - 4.8 KB)
0010.086 (0) Table wp_bp_activity_meta: Total expected rows (approximate): 55
0010.088 (0) Table wp_bp_activity_meta: Total rows added: 56 in 0.00 seconds
0010.090 (0) Table wp_bp_activity_meta: finishing file (backup_2017-05-13-1108_Young_Foodies_2ba4fb78b516-db-table-wp_bp_activity_meta.table.gz - 1.1 KB)
0010.106 (0) Table wp_bp_friends: Total expected rows (approximate): 8
0010.113 (0) Table wp_bp_friends: Total rows added: 12 in 0.00 seconds
0010.115 (0) Table wp_bp_friends: finishing file (backup_2017-05-13-1108_Young_Foodies_2ba4fb78b516-db-table-wp_bp_friends.table.gz - 0.5 KB)
0010.120 (0) Table wp_bp_groups: Total expected rows (approximate): 4
0010.123 (0) Table wp_bp_groups: Total rows added: 4 in 0.00 seconds
0010.125 (0) Table wp_bp_groups: finishing file (backup_2017-05-13-1108_Young_Foodies_2ba4fb78b516-db-table-wp_bp_groups.table.gz - 0.6 KB)
0010.129 (0) Table wp_bp_groups_groupmeta: Total expected rows (approximate): 22
0010.131 (0) Table wp_bp_groups_groupmeta: Total rows added: 22 in 0.00 seconds
0010.132 (0) Table wp_bp_groups_groupmeta: finishing file (backup_2017-05-13-1108_Young_Foodies_2ba4fb78b516-db-table-wp_bp_groups_groupmeta.table.gz - 0.7 KB)
0010.136 (0) Table wp_bp_groups_members: Total expected rows (approximate): 10
0010.138 (0) Table wp_bp_groups_members: Total rows added: 10 in 0.00 seconds
0010.140 (0) Table wp_bp_groups_members: finishing file (backup_2017-05-13-1108_Young_Foodies_2ba4fb78b516-db-table-wp_bp_groups_members.table.gz - 0.6 KB)
0010.144 (0) Table wp_bp_messages_messages: Total expected rows (approximate): 50
0010.147 (0) Table wp_bp_messages_messages: Total rows added: 51 in 0.00 seconds
0010.148 (0) Table wp_bp_messages_messages: finishing file (backup_2017-05-13-1108_Young_Foodies_2ba4fb78b516-db-table-wp_bp_messages_messages.table.gz - 1.3 KB)
0010.152 (0) Table wp_bp_messages_meta: Total expected rows (approximate): 2
0010.154 (0) Table wp_bp_messages_meta: Total rows added: 2 in 0.00 seconds
0010.155 (0) Table wp_bp_messages_meta: finishing file (backup_2017-05-13-1108_Young_Foodies_2ba4fb78b516-db-table-wp_bp_messages_meta.table.gz - 0.4 KB)
0010.161 (0) Table wp_bp_messages_notices: Total expected rows (approximate): 0
0010.162 (0) Table wp_bp_messages_notices: Total rows added: 0 in 0.00 seconds
0010.163 (0) Table wp_bp_messages_notices: finishing file (backup_2017-05-13-1108_Young_Foodies_2ba4fb78b516-db-table-wp_bp_messages_notices.table.gz - 0.3 KB)
0010.167 (0) Table wp_bp_messages_recipients: Total expected rows (approximate): 32
0010.169 (0) Table wp_bp_messages_recipients: Total rows added: 32 in 0.00 seconds
0010.170 (0) Table wp_bp_messages_recipients: finishing file (backup_2017-05-13-1108_Young_Foodies_2ba4fb78b516-db-table-wp_bp_messages_recipients.table.gz - 0.6 KB)
0010.174 (0) Table wp_bp_notifications: Total expected rows (approximate): 91
0010.176 (0) Table wp_bp_notifications: Total rows added: 102 in 0.00 seconds
0010.179 (0) Table wp_bp_notifications: finishing file (backup_2017-05-13-1108_Young_Foodies_2ba4fb78b516-db-table-wp_bp_notifications.table.gz - 1.8 KB)
0010.183 (0) Table wp_bp_notifications_meta: Total expected rows (approximate): 0
0010.185 (0) Table wp_bp_notifications_meta: Total rows added: 0 in 0.00 seconds
0010.186 (0) Table wp_bp_notifications_meta: finishing file (backup_2017-05-13-1108_Young_Foodies_2ba4fb78b516-db-table-wp_bp_notifications_meta.table.gz - 0.4 KB)
0010.190 (0) Table wp_bp_user_blogs: Total expected rows (approximate): 10
0010.192 (0) Table wp_bp_user_blogs: Total rows added: 10 in 0.00 seconds
0010.193 (0) Table wp_bp_user_blogs: finishing file (backup_2017-05-13-1108_Young_Foodies_2ba4fb78b516-db-table-wp_bp_user_blogs.table.gz - 0.4 KB)
0010.198 (0) Table wp_bp_user_blogs_blogmeta: Total expected rows (approximate): 9
0010.199 (0) Table wp_bp_user_blogs_blogmeta: Total rows added: 9 in 0.00 seconds
0010.200 (0) Table wp_bp_user_blogs_blogmeta: finishing file (backup_2017-05-13-1108_Young_Foodies_2ba4fb78b516-db-table-wp_bp_user_blogs_blogmeta.table.gz - 0.6 KB)
0010.205 (0) Table wp_bp_xprofile_data: Total expected rows (approximate): 86
0010.208 (0) Table wp_bp_xprofile_data: Total rows added: 88 in 0.00 seconds
0010.211 (0) Table wp_bp_xprofile_data: finishing file (backup_2017-05-13-1108_Young_Foodies_2ba4fb78b516-db-table-wp_bp_xprofile_data.table.gz - 2.6 KB)
0010.218 (0) Table wp_bp_xprofile_fields: Total expected rows (approximate): 25
0010.220 (0) Table wp_bp_xprofile_fields: Total rows added: 25 in 0.00 seconds
0010.222 (0) Table wp_bp_xprofile_fields: finishing file (backup_2017-05-13-1108_Young_Foodies_2ba4fb78b516-db-table-wp_bp_xprofile_fields.table.gz - 0.9 KB)
0010.226 (0) Table wp_bp_xprofile_groups: Total expected rows (approximate): 0
0010.227 (0) Table wp_bp_xprofile_groups: Total rows added: 1 in 0.00 seconds
0010.229 (0) Table wp_bp_xprofile_groups: finishing file (backup_2017-05-13-1108_Young_Foodies_2ba4fb78b516-db-table-wp_bp_xprofile_groups.table.gz - 0.4 KB)
0010.232 (0) Table wp_bp_xprofile_meta: Total expected rows (approximate): 26
0010.234 (0) Table wp_bp_xprofile_meta: Total rows added: 27 in 0.00 seconds
0010.235 (0) Table wp_bp_xprofile_meta: finishing file (backup_2017-05-13-1108_Young_Foodies_2ba4fb78b516-db-table-wp_bp_xprofile_meta.table.gz - 0.6 KB)
0010.238 (0) Table wp_duplicator_pro_entities: Total expected rows (approximate): 4
0010.240 (0) Table wp_duplicator_pro_entities: Total rows added: 4 in 0.00 seconds
0010.241 (0) Table wp_duplicator_pro_entities: finishing file (backup_2017-05-13-1108_Young_Foodies_2ba4fb78b516-db-table-wp_duplicator_pro_entities.table.gz - 1.3 KB)
0010.245 (0) Table wp_duplicator_pro_packages: Total expected rows (approximate): 0
0010.246 (0) Table wp_duplicator_pro_packages: Total rows added: 0 in 0.00 seconds
0010.247 (0) Table wp_duplicator_pro_packages: finishing file (backup_2017-05-13-1108_Young_Foodies_2ba4fb78b516-db-table-wp_duplicator_pro_packages.table.gz - 0.4 KB)
0010.251 (0) Table wp_em_bookings: Total expected rows (approximate): 29
0010.253 (0) Table wp_em_bookings: Total rows added: 29 in 0.00 seconds
0010.254 (0) Table wp_em_bookings: finishing file (backup_2017-05-13-1108_Young_Foodies_2ba4fb78b516-db-table-wp_em_bookings.table.gz - 0.9 KB)
0010.258 (0) Table wp_em_events: Total expected rows (approximate): 11
0010.260 (0) Table wp_em_events: Total rows added: 11 in 0.00 seconds
0010.262 (0) Table wp_em_events: finishing file (backup_2017-05-13-1108_Young_Foodies_2ba4fb78b516-db-table-wp_em_events.table.gz - 3.5 KB)
0010.266 (0) Table wp_em_locations: Total expected rows (approximate): 9
0010.271 (0) Table wp_em_locations: Total rows added: 9 in 0.00 seconds
0010.272 (0) Table wp_em_locations: finishing file (backup_2017-05-13-1108_Young_Foodies_2ba4fb78b516-db-table-wp_em_locations.table.gz - 0.9 KB)
0010.277 (0) Table wp_em_meta: Total expected rows (approximate): 2
0010.279 (0) Table wp_em_meta: Total rows added: 2 in 0.00 seconds
0010.300 (0) Table wp_em_meta: finishing file (backup_2017-05-13-1108_Young_Foodies_2ba4fb78b516-db-table-wp_em_meta.table.gz - 0.4 KB)
0010.305 (0) Table wp_em_tickets: Total expected rows (approximate): 10
0010.307 (0) Table wp_em_tickets: Total rows added: 10 in 0.00 seconds
0010.308 (0) Table wp_em_tickets: finishing file (backup_2017-05-13-1108_Young_Foodies_2ba4fb78b516-db-table-wp_em_tickets.table.gz - 0.6 KB)
0010.312 (0) Table wp_em_tickets_bookings: Total expected rows (approximate): 29
0010.314 (0) Table wp_em_tickets_bookings: Total rows added: 29 in 0.00 seconds
0010.316 (0) Table wp_em_tickets_bookings: finishing file (backup_2017-05-13-1108_Young_Foodies_2ba4fb78b516-db-table-wp_em_tickets_bookings.table.gz - 0.5 KB)
0010.320 (0) Table wp_formmaker: Total expected rows (approximate): 9
0010.325 (0) Table wp_formmaker: Total rows added: 9 in 0.00 seconds
0010.327 (0) Table wp_formmaker: finishing file (backup_2017-05-13-1108_Young_Foodies_2ba4fb78b516-db-table-wp_formmaker.table.gz - 3.9 KB)
0010.331 (0) Table wp_formmaker_backup: Total expected rows (approximate): 4
0010.335 (0) Table wp_formmaker_backup: Total rows added: 4 in 0.00 seconds
0010.337 (0) Table wp_formmaker_backup: finishing file (backup_2017-05-13-1108_Young_Foodies_2ba4fb78b516-db-table-wp_formmaker_backup.table.gz - 2.5 KB)
0010.342 (0) Table wp_formmaker_blocked: Total expected rows (approximate): 0
0010.344 (0) Table wp_formmaker_blocked: Total rows added: 0 in 0.00 seconds
0010.345 (0) Table wp_formmaker_blocked: finishing file (backup_2017-05-13-1108_Young_Foodies_2ba4fb78b516-db-table-wp_formmaker_blocked.table.gz - 0.3 KB)
0010.350 (0) Table wp_formmaker_query: Total expected rows (approximate): 0
0010.352 (0) Table wp_formmaker_query: Total rows added: 0 in 0.00 seconds
0010.353 (0) Table wp_formmaker_query: finishing file (backup_2017-05-13-1108_Young_Foodies_2ba4fb78b516-db-table-wp_formmaker_query.table.gz - 0.3 KB)
0010.358 (0) Table wp_formmaker_sessions: Total expected rows (approximate): 0
0010.361 (0) Table wp_formmaker_sessions: Total rows added: 0 in 0.00 seconds
0010.362 (0) Table wp_formmaker_sessions: finishing file (backup_2017-05-13-1108_Young_Foodies_2ba4fb78b516-db-table-wp_formmaker_sessions.table.gz - 0.5 KB)
0010.366 (0) Table wp_formmaker_submits: Total expected rows (approximate): 0
0010.369 (0) Table wp_formmaker_submits: Total rows added: 0 in 0.00 seconds
0010.370 (0) Table wp_formmaker_submits: finishing file (backup_2017-05-13-1108_Young_Foodies_2ba4fb78b516-db-table-wp_formmaker_submits.table.gz - 0.3 KB)
0010.386 (0) Table wp_formmaker_themes: Total expected rows (approximate): 37
0010.410 (0) Table wp_formmaker_themes: Total rows added: 37 in 0.02 seconds
0010.412 (0) Table wp_formmaker_themes: finishing file (backup_2017-05-13-1108_Young_Foodies_2ba4fb78b516-db-table-wp_formmaker_themes.table.gz - 22.7 KB)
0010.426 (0) Table wp_formmaker_views: Total expected rows (approximate): 0
0010.427 (0) Table wp_formmaker_views: Total rows added: 0 in 0.00 seconds
0010.429 (0) Table wp_formmaker_views: finishing file (backup_2017-05-13-1108_Young_Foodies_2ba4fb78b516-db-table-wp_formmaker_views.table.gz - 0.3 KB)
0010.433 (0) Table wp_itsec_lockouts: Total expected rows (approximate): 0
0010.435 (0) Table wp_itsec_lockouts: Total rows added: 0 in 0.00 seconds
0010.438 (0) Table wp_itsec_lockouts: finishing file (backup_2017-05-13-1108_Young_Foodies_2ba4fb78b516-db-table-wp_itsec_lockouts.table.gz - 0.4 KB)
0010.445 (0) Table wp_itsec_log: Total expected rows (approximate): 300
0010.456 (0) Table wp_itsec_log: Total rows added: 623 in 0.01 seconds
0010.458 (0) Table wp_itsec_log: finishing file (backup_2017-05-13-1108_Young_Foodies_2ba4fb78b516-db-table-wp_itsec_log.table.gz - 9.3 KB)
0010.463 (0) Table wp_itsec_temp: Total expected rows (approximate): 45
0010.466 (0) Table wp_itsec_temp: Total rows added: 69 in 0.00 seconds
0010.472 (0) Table wp_itsec_temp: finishing file (backup_2017-05-13-1108_Young_Foodies_2ba4fb78b516-db-table-wp_itsec_temp.table.gz - 1.2 KB)
0010.479 (0) Table wp_myCRED_log: Total expected rows (approximate): 27
0010.481 (0) Table wp_myCRED_log: Total rows added: 27 in 0.00 seconds
0010.483 (0) Table wp_myCRED_log: finishing file (backup_2017-05-13-1108_Young_Foodies_2ba4fb78b516-db-table-wp_myCRED_log.table.gz - 1.1 KB)
0010.487 (0) Table wp_pmpro_discount_codes: Total expected rows (approximate): 0
0010.489 (0) Table wp_pmpro_discount_codes: Total rows added: 0 in 0.00 seconds
0010.490 (0) Table wp_pmpro_discount_codes: finishing file (backup_2017-05-13-1108_Young_Foodies_2ba4fb78b516-db-table-wp_pmpro_discount_codes.table.gz - 0.3 KB)
0010.505 (0) Table wp_pmpro_discount_codes_levels: Total expected rows (approximate): 0
0010.507 (0) Table wp_pmpro_discount_codes_levels: Total rows added: 0 in 0.00 seconds
0010.509 (0) Table wp_pmpro_discount_codes_levels: finishing file (backup_2017-05-13-1108_Young_Foodies_2ba4fb78b516-db-table-wp_pmpro_discount_codes_levels.table.gz - 0.5 KB)
0010.517 (0) Table wp_pmpro_discount_codes_uses: Total expected rows (approximate): 0
0010.519 (0) Table wp_pmpro_discount_codes_uses: Total rows added: 0 in 0.00 seconds
0010.520 (0) Table wp_pmpro_discount_codes_uses: finishing file (backup_2017-05-13-1108_Young_Foodies_2ba4fb78b516-db-table-wp_pmpro_discount_codes_uses.table.gz - 0.3 KB)
0010.524 (0) Table wp_pmpro_membership_levelmeta: Total expected rows (approximate): 0
0010.526 (0) Table wp_pmpro_membership_levelmeta: Total rows added: 0 in 0.00 seconds
0010.527 (0) Table wp_pmpro_membership_levelmeta: finishing file (backup_2017-05-13-1108_Young_Foodies_2ba4fb78b516-db-table-wp_pmpro_membership_levelmeta.table.gz - 0.3 KB)
0010.531 (0) Table wp_pmpro_membership_levels: Total expected rows (approximate): 2
0010.534 (0) Table wp_pmpro_membership_levels: Total rows added: 2 in 0.00 seconds
0010.545 (0) Table wp_pmpro_membership_levels: finishing file (backup_2017-05-13-1108_Young_Foodies_2ba4fb78b516-db-table-wp_pmpro_membership_levels.table.gz - 0.6 KB)
0010.554 (0) Table wp_pmpro_membership_orders: Total expected rows (approximate): 0
0010.556 (0) Table wp_pmpro_membership_orders: Total rows added: 0 in 0.00 seconds
0010.558 (0) Table wp_pmpro_membership_orders: finishing file (backup_2017-05-13-1108_Young_Foodies_2ba4fb78b516-db-table-wp_pmpro_membership_orders.table.gz - 0.7 KB)
0010.565 (0) Table wp_pmpro_memberships_categories: Total expected rows (approximate): 0
0010.569 (0) Table wp_pmpro_memberships_categories: Total rows added: 0 in 0.00 seconds
0010.570 (0) Table wp_pmpro_memberships_categories: finishing file (backup_2017-05-13-1108_Young_Foodies_2ba4fb78b516-db-table-wp_pmpro_memberships_categories.table.gz - 0.3 KB)
0010.575 (0) Table wp_pmpro_memberships_pages: Total expected rows (approximate): 189
0010.580 (0) Table wp_pmpro_memberships_pages: Total rows added: 189 in 0.00 seconds
0010.582 (0) Table wp_pmpro_memberships_pages: finishing file (backup_2017-05-13-1108_Young_Foodies_2ba4fb78b516-db-table-wp_pmpro_memberships_pages.table.gz - 1.4 KB)
0010.586 (0) Table wp_pmpro_memberships_users: Total expected rows (approximate): 24
0010.588 (0) Table wp_pmpro_memberships_users: Total rows added: 24 in 0.00 seconds
0010.589 (0) Table wp_pmpro_memberships_users: finishing file (backup_2017-05-13-1108_Young_Foodies_2ba4fb78b516-db-table-wp_pmpro_memberships_users.table.gz - 1.1 KB)
0010.594 (0) Table wp_pts_modules: Total expected rows (approximate): 9
0010.596 (0) Table wp_pts_modules: Total rows added: 9 in 0.00 seconds
0010.597 (0) Table wp_pts_modules: finishing file (backup_2017-05-13-1108_Young_Foodies_2ba4fb78b516-db-table-wp_pts_modules.table.gz - 0.5 KB)
0010.601 (0) Table wp_pts_modules_type: Total expected rows (approximate): 2
0010.603 (0) Table wp_pts_modules_type: Total rows added: 2 in 0.00 seconds
0010.604 (0) Table wp_pts_modules_type: finishing file (backup_2017-05-13-1108_Young_Foodies_2ba4fb78b516-db-table-wp_pts_modules_type.table.gz - 0.3 KB)
0010.612 (0) Table wp_pts_tables: Total expected rows (approximate): 4
0010.620 (0) Table wp_pts_tables: Total rows added: 8 in 0.01 seconds
0010.622 (0) Table wp_pts_tables: finishing file (backup_2017-05-13-1108_Young_Foodies_2ba4fb78b516-db-table-wp_pts_tables.table.gz - 21 KB)
0010.627 (0) Table wp_pts_usage_stat: Total expected rows (approximate): 2
0010.630 (0) Table wp_pts_usage_stat: Total rows added: 2 in 0.00 seconds
0010.631 (0) Table wp_pts_usage_stat: finishing file (backup_2017-05-13-1108_Young_Foodies_2ba4fb78b516-db-table-wp_pts_usage_stat.table.gz - 0.4 KB)
0010.636 (0) Table wp_scs_octo: Total expected rows (approximate): 3
0010.638 (0) Table wp_scs_octo: Total rows added: 3 in 0.00 seconds
0010.642 (0) Table wp_scs_octo: finishing file (backup_2017-05-13-1108_Young_Foodies_2ba4fb78b516-db-table-wp_scs_octo.table.gz - 1.1 KB)
0010.648 (0) Table wp_scs_octo_blocks: Total expected rows (approximate): 16
0010.652 (0) Table wp_scs_octo_blocks: Total rows added: 16 in 0.00 seconds
0010.654 (0) Table wp_scs_octo_blocks: finishing file (backup_2017-05-13-1108_Young_Foodies_2ba4fb78b516-db-table-wp_scs_octo_blocks.table.gz - 6.9 KB)
0010.658 (0) Table wp_scs_octo_blocks_categories: Total expected rows (approximate): 9
0010.661 (0) Table wp_scs_octo_blocks_categories: Total rows added: 9 in 0.00 seconds
0010.662 (0) Table wp_scs_octo_blocks_categories: finishing file (backup_2017-05-13-1108_Young_Foodies_2ba4fb78b516-db-table-wp_scs_octo_blocks_categories.table.gz - 0.4 KB)
0010.666 (0) Table wp_scs_subscribers: Total expected rows (approximate): 2
0010.668 (0) Table wp_scs_subscribers: Total rows added: 2 in 0.00 seconds
0010.669 (0) Table wp_scs_subscribers: finishing file (backup_2017-05-13-1108_Young_Foodies_2ba4fb78b516-db-table-wp_scs_subscribers.table.gz - 0.6 KB)
0010.677 (0) Table wp_swpm_members_tbl: Total expected rows (approximate): 0
0010.679 (0) Table wp_swpm_members_tbl: Total rows added: 0 in 0.00 seconds
0010.680 (0) Table wp_swpm_members_tbl: finishing file (backup_2017-05-13-1108_Young_Foodies_2ba4fb78b516-db-table-wp_swpm_members_tbl.table.gz - 0.7 KB)
0010.684 (0) Table wp_swpm_membership_meta_tbl: Total expected rows (approximate): 0
0010.686 (0) Table wp_swpm_membership_meta_tbl: Total rows added: 0 in 0.00 seconds
0010.687 (0) Table wp_swpm_membership_meta_tbl: finishing file (backup_2017-05-13-1108_Young_Foodies_2ba4fb78b516-db-table-wp_swpm_membership_meta_tbl.table.gz - 0.4 KB)
0010.693 (0) Table wp_swpm_membership_tbl: Total expected rows (approximate): 3
0010.696 (0) Table wp_swpm_membership_tbl: Total rows added: 3 in 0.00 seconds
0010.697 (0) Table wp_swpm_membership_tbl: finishing file (backup_2017-05-13-1108_Young_Foodies_2ba4fb78b516-db-table-wp_swpm_membership_tbl.table.gz - 0.7 KB)
0010.701 (0) Table wp_swpm_payments_tbl: Total expected rows (approximate): 0
0010.703 (0) Table wp_swpm_payments_tbl: Total rows added: 0 in 0.00 seconds
0010.704 (0) Table wp_swpm_payments_tbl: finishing file (backup_2017-05-13-1108_Young_Foodies_2ba4fb78b516-db-table-wp_swpm_payments_tbl.table.gz - 0.4 KB)
0010.709 (0) Table wp_um_conversations: Total expected rows (approximate): 0
0010.710 (0) Table wp_um_conversations: Total rows added: 1 in 0.00 seconds
0010.712 (0) Table wp_um_conversations: finishing file (backup_2017-05-13-1108_Young_Foodies_2ba4fb78b516-db-table-wp_um_conversations.table.gz - 0.4 KB)
0010.720 (0) Table wp_um_followers: Total expected rows (approximate): 3
0010.722 (0) Table wp_um_followers: Total rows added: 3 in 0.00 seconds
0010.723 (0) Table wp_um_followers: finishing file (backup_2017-05-13-1108_Young_Foodies_2ba4fb78b516-db-table-wp_um_followers.table.gz - 0.4 KB)
0010.729 (0) Table wp_um_friends: Total expected rows (approximate): 1
0010.731 (0) Table wp_um_friends: Total rows added: 1 in 0.00 seconds
0010.738 (0) Table wp_um_friends: finishing file (backup_2017-05-13-1108_Young_Foodies_2ba4fb78b516-db-table-wp_um_friends.table.gz - 0.4 KB)
0010.743 (0) Table wp_um_messages: Total expected rows (approximate): 4
0010.752 (0) Table wp_um_messages: Total rows added: 4 in 0.01 seconds
0010.754 (0) Table wp_um_messages: finishing file (backup_2017-05-13-1108_Young_Foodies_2ba4fb78b516-db-table-wp_um_messages.table.gz - 0.6 KB)
0010.759 (0) Table wp_um_notifications: Total expected rows (approximate): 10
0010.761 (0) Table wp_um_notifications: Total rows added: 10 in 0.00 seconds
0010.762 (0) Table wp_um_notifications: finishing file (backup_2017-05-13-1108_Young_Foodies_2ba4fb78b516-db-table-wp_um_notifications.table.gz - 0.9 KB)
0010.767 (0) Table wp_wonderplugin_carousel: Total expected rows (approximate): 2
0010.772 (0) Table wp_wonderplugin_carousel: Total rows added: 2 in 0.00 seconds
0010.774 (0) Table wp_wonderplugin_carousel: finishing file (backup_2017-05-13-1108_Young_Foodies_2ba4fb78b516-db-table-wp_wonderplugin_carousel.table.gz - 2.5 KB)
0010.787 (0) Table wp_wp_rp_tags: Total expected rows (approximate): 202
0010.793 (0) Table wp_wp_rp_tags: Total rows added: 202 in 0.00 seconds
0010.795 (0) Table wp_wp_rp_tags: finishing file (backup_2017-05-13-1108_Young_Foodies_2ba4fb78b516-db-table-wp_wp_rp_tags.table.gz - 1.6 KB)
0010.803 (0) Table wp_wpeditor_settings: Total expected rows (approximate): 24
0010.806 (0) Table wp_wpeditor_settings: Total rows added: 24 in 0.00 seconds
0010.815 (0) Table wp_wpeditor_settings: finishing file (backup_2017-05-13-1108_Young_Foodies_2ba4fb78b516-db-table-wp_wpeditor_settings.table.gz - 0.6 KB)
0010.826 (0) Table wp_wpuf_transaction: Total expected rows (approximate): 0
0010.829 (0) Table wp_wpuf_transaction: Total rows added: 0 in 0.00 seconds
0010.831 (0) Table wp_wpuf_transaction: finishing file (backup_2017-05-13-1108_Young_Foodies_2ba4fb78b516-db-table-wp_wpuf_transaction.table.gz - 0.4 KB)
0010.837 (0) Table wp_wti_like_post: Total expected rows (approximate): 3
0010.845 (0) Table wp_wti_like_post: Total rows added: 3 in 0.00 seconds
0010.847 (0) Table wp_wti_like_post: finishing file (backup_2017-05-13-1108_Young_Foodies_2ba4fb78b516-db-table-wp_wti_like_post.table.gz - 0.4 KB)
0010.851 (0) Table wp_yuzoviews: Total expected rows (approximate): 2
0010.853 (0) Table wp_yuzoviews: Total rows added: 2 in 0.00 seconds
0010.854 (0) Table wp_yuzoviews: finishing file (backup_2017-05-13-1108_Young_Foodies_2ba4fb78b516-db-table-wp_yuzoviews.table.gz - 0.4 KB)
0010.858 (0) backup_2017-05-13-1108_Young_Foodies_2ba4fb78b516-db-table-wp_options.table.gz (1/84): adding to final database dump
0010.893 (0) backup_2017-05-13-1108_Young_Foodies_2ba4fb78b516-db-table-wp_users.table.gz (2/84): adding to final database dump
0010.896 (0) backup_2017-05-13-1108_Young_Foodies_2ba4fb78b516-db-table-wp_usermeta.table.gz (3/84): adding to final database dump
0010.900 (0) backup_2017-05-13-1108_Young_Foodies_2ba4fb78b516-db-table-wp_commentmeta.table.gz (4/84): adding to final database dump
0010.902 (0) backup_2017-05-13-1108_Young_Foodies_2ba4fb78b516-db-table-wp_comments.table.gz (5/84): adding to final database dump
0010.905 (0) backup_2017-05-13-1108_Young_Foodies_2ba4fb78b516-db-table-wp_links.table.gz (6/84): adding to final database dump
0010.906 (0) backup_2017-05-13-1108_Young_Foodies_2ba4fb78b516-db-table-wp_postmeta.table.gz (7/84): adding to final database dump
0011.433 (0) backup_2017-05-13-1108_Young_Foodies_2ba4fb78b516-db-table-wp_posts.table.gz (8/84): adding to final database dump
0011.701 (0) backup_2017-05-13-1108_Young_Foodies_2ba4fb78b516-db-table-wp_signups.table.gz (9/84): adding to final database dump
0011.703 (0) backup_2017-05-13-1108_Young_Foodies_2ba4fb78b516-db-table-wp_term_relationships.table.gz (10/84): adding to final database dump
0011.704 (0) backup_2017-05-13-1108_Young_Foodies_2ba4fb78b516-db-table-wp_term_taxonomy.table.gz (11/84): adding to final database dump
0011.706 (0) backup_2017-05-13-1108_Young_Foodies_2ba4fb78b516-db-table-wp_termmeta.table.gz (12/84): adding to final database dump
0011.707 (0) backup_2017-05-13-1108_Young_Foodies_2ba4fb78b516-db-table-wp_terms.table.gz (13/84): adding to final database dump
0011.709 (0) backup_2017-05-13-1108_Young_Foodies_2ba4fb78b516-db-table-wp_alm.table.gz (14/84): adding to final database dump
0011.710 (0) backup_2017-05-13-1108_Young_Foodies_2ba4fb78b516-db-table-wp_bp_activity.table.gz (15/84): adding to final database dump
0011.712 (0) backup_2017-05-13-1108_Young_Foodies_2ba4fb78b516-db-table-wp_bp_activity_meta.table.gz (16/84): adding to final database dump
0011.713 (0) backup_2017-05-13-1108_Young_Foodies_2ba4fb78b516-db-table-wp_bp_friends.table.gz (17/84): adding to final database dump
0011.714 (0) backup_2017-05-13-1108_Young_Foodies_2ba4fb78b516-db-table-wp_bp_groups.table.gz (18/84): adding to final database dump
0011.717 (0) backup_2017-05-13-1108_Young_Foodies_2ba4fb78b516-db-table-wp_bp_groups_groupmeta.table.gz (19/84): adding to final database dump
0011.718 (0) backup_2017-05-13-1108_Young_Foodies_2ba4fb78b516-db-table-wp_bp_groups_members.table.gz (20/84): adding to final database dump
0011.719 (0) backup_2017-05-13-1108_Young_Foodies_2ba4fb78b516-db-table-wp_bp_messages_messages.table.gz (21/84): adding to final database dump
0011.729 (0) backup_2017-05-13-1108_Young_Foodies_2ba4fb78b516-db-table-wp_bp_messages_meta.table.gz (22/84): adding to final database dump
0011.732 (0) backup_2017-05-13-1108_Young_Foodies_2ba4fb78b516-db-table-wp_bp_messages_notices.table.gz (23/84): adding to final database dump
0011.734 (0) backup_2017-05-13-1108_Young_Foodies_2ba4fb78b516-db-table-wp_bp_messages_recipients.table.gz (24/84): adding to final database dump
0011.737 (0) backup_2017-05-13-1108_Young_Foodies_2ba4fb78b516-db-table-wp_bp_notifications.table.gz (25/84): adding to final database dump
0011.739 (0) backup_2017-05-13-1108_Young_Foodies_2ba4fb78b516-db-table-wp_bp_notifications_meta.table.gz (26/84): adding to final database dump
0011.741 (0) backup_2017-05-13-1108_Young_Foodies_2ba4fb78b516-db-table-wp_bp_user_blogs.table.gz (27/84): adding to final database dump
0011.742 (0) backup_2017-05-13-1108_Young_Foodies_2ba4fb78b516-db-table-wp_bp_user_blogs_blogmeta.table.gz (28/84): adding to final database dump
0011.744 (0) backup_2017-05-13-1108_Young_Foodies_2ba4fb78b516-db-table-wp_bp_xprofile_data.table.gz (29/84): adding to final database dump
0011.746 (0) backup_2017-05-13-1108_Young_Foodies_2ba4fb78b516-db-table-wp_bp_xprofile_fields.table.gz (30/84): adding to final database dump
0011.747 (0) backup_2017-05-13-1108_Young_Foodies_2ba4fb78b516-db-table-wp_bp_xprofile_groups.table.gz (31/84): adding to final database dump
0011.748 (0) backup_2017-05-13-1108_Young_Foodies_2ba4fb78b516-db-table-wp_bp_xprofile_meta.table.gz (32/84): adding to final database dump
0011.750 (0) backup_2017-05-13-1108_Young_Foodies_2ba4fb78b516-db-table-wp_duplicator_pro_entities.table.gz (33/84): adding to final database dump
0011.757 (0) backup_2017-05-13-1108_Young_Foodies_2ba4fb78b516-db-table-wp_duplicator_pro_packages.table.gz (34/84): adding to final database dump
0011.765 (0) backup_2017-05-13-1108_Young_Foodies_2ba4fb78b516-db-table-wp_em_bookings.table.gz (35/84): adding to final database dump
0011.767 (0) backup_2017-05-13-1108_Young_Foodies_2ba4fb78b516-db-table-wp_em_events.table.gz (36/84): adding to final database dump
0011.770 (0) backup_2017-05-13-1108_Young_Foodies_2ba4fb78b516-db-table-wp_em_locations.table.gz (37/84): adding to final database dump
0011.771 (0) backup_2017-05-13-1108_Young_Foodies_2ba4fb78b516-db-table-wp_em_meta.table.gz (38/84): adding to final database dump
0011.780 (0) backup_2017-05-13-1108_Young_Foodies_2ba4fb78b516-db-table-wp_em_tickets.table.gz (39/84): adding to final database dump
0011.782 (0) backup_2017-05-13-1108_Young_Foodies_2ba4fb78b516-db-table-wp_em_tickets_bookings.table.gz (40/84): adding to final database dump
0011.783 (0) backup_2017-05-13-1108_Young_Foodies_2ba4fb78b516-db-table-wp_formmaker.table.gz (41/84): adding to final database dump
0011.789 (0) backup_2017-05-13-1108_Young_Foodies_2ba4fb78b516-db-table-wp_formmaker_backup.table.gz (42/84): adding to final database dump
0011.791 (0) backup_2017-05-13-1108_Young_Foodies_2ba4fb78b516-db-table-wp_formmaker_blocked.table.gz (43/84): adding to final database dump
0011.793 (0) backup_2017-05-13-1108_Young_Foodies_2ba4fb78b516-db-table-wp_formmaker_query.table.gz (44/84): adding to final database dump
0011.794 (0) backup_2017-05-13-1108_Young_Foodies_2ba4fb78b516-db-table-wp_formmaker_sessions.table.gz (45/84): adding to final database dump
0011.799 (0) backup_2017-05-13-1108_Young_Foodies_2ba4fb78b516-db-table-wp_formmaker_submits.table.gz (46/84): adding to final database dump
0011.802 (0) backup_2017-05-13-1108_Young_Foodies_2ba4fb78b516-db-table-wp_formmaker_themes.table.gz (47/84): adding to final database dump
0011.817 (0) backup_2017-05-13-1108_Young_Foodies_2ba4fb78b516-db-table-wp_formmaker_views.table.gz (48/84): adding to final database dump
0011.818 (0) backup_2017-05-13-1108_Young_Foodies_2ba4fb78b516-db-table-wp_itsec_lockouts.table.gz (49/84): adding to final database dump
0011.819 (0) backup_2017-05-13-1108_Young_Foodies_2ba4fb78b516-db-table-wp_itsec_log.table.gz (50/84): adding to final database dump
0011.823 (0) backup_2017-05-13-1108_Young_Foodies_2ba4fb78b516-db-table-wp_itsec_temp.table.gz (51/84): adding to final database dump
0011.826 (0) backup_2017-05-13-1108_Young_Foodies_2ba4fb78b516-db-table-wp_myCRED_log.table.gz (52/84): adding to final database dump
0011.827 (0) backup_2017-05-13-1108_Young_Foodies_2ba4fb78b516-db-table-wp_pmpro_discount_codes.table.gz (53/84): adding to final database dump
0011.840 (0) backup_2017-05-13-1108_Young_Foodies_2ba4fb78b516-db-table-wp_pmpro_discount_codes_levels.table.gz (54/84): adding to final database dump
0011.841 (0) backup_2017-05-13-1108_Young_Foodies_2ba4fb78b516-db-table-wp_pmpro_discount_codes_uses.table.gz (55/84): adding to final database dump
0011.842 (0) backup_2017-05-13-1108_Young_Foodies_2ba4fb78b516-db-table-wp_pmpro_membership_levelmeta.table.gz (56/84): adding to final database dump
0011.844 (0) backup_2017-05-13-1108_Young_Foodies_2ba4fb78b516-db-table-wp_pmpro_membership_levels.table.gz (57/84): adding to final database dump
0011.845 (0) backup_2017-05-13-1108_Young_Foodies_2ba4fb78b516-db-table-wp_pmpro_membership_orders.table.gz (58/84): adding to final database dump
0011.846 (0) backup_2017-05-13-1108_Young_Foodies_2ba4fb78b516-db-table-wp_pmpro_memberships_categories.table.gz (59/84): adding to final database dump
0011.847 (0) backup_2017-05-13-1108_Young_Foodies_2ba4fb78b516-db-table-wp_pmpro_memberships_pages.table.gz (60/84): adding to final database dump
0011.850 (0) backup_2017-05-13-1108_Young_Foodies_2ba4fb78b516-db-table-wp_pmpro_memberships_users.table.gz (61/84): adding to final database dump
0011.855 (0) backup_2017-05-13-1108_Young_Foodies_2ba4fb78b516-db-table-wp_pts_modules.table.gz (62/84): adding to final database dump
0011.860 (0) backup_2017-05-13-1108_Young_Foodies_2ba4fb78b516-db-table-wp_pts_modules_type.table.gz (63/84): adding to final database dump
0011.862 (0) backup_2017-05-13-1108_Young_Foodies_2ba4fb78b516-db-table-wp_pts_tables.table.gz (64/84): adding to final database dump
0011.869 (0) backup_2017-05-13-1108_Young_Foodies_2ba4fb78b516-db-table-wp_pts_usage_stat.table.gz (65/84): adding to final database dump
0011.872 (0) backup_2017-05-13-1108_Young_Foodies_2ba4fb78b516-db-table-wp_scs_octo.table.gz (66/84): adding to final database dump
0011.875 (0) backup_2017-05-13-1108_Young_Foodies_2ba4fb78b516-db-table-wp_scs_octo_blocks.table.gz (67/84): adding to final database dump
0011.878 (0) backup_2017-05-13-1108_Young_Foodies_2ba4fb78b516-db-table-wp_scs_octo_blocks_categories.table.gz (68/84): adding to final database dump
0011.886 (0) backup_2017-05-13-1108_Young_Foodies_2ba4fb78b516-db-table-wp_scs_subscribers.table.gz (69/84): adding to final database dump
0011.888 (0) backup_2017-05-13-1108_Young_Foodies_2ba4fb78b516-db-table-wp_swpm_members_tbl.table.gz (70/84): adding to final database dump
0011.889 (0) backup_2017-05-13-1108_Young_Foodies_2ba4fb78b516-db-table-wp_swpm_membership_meta_tbl.table.gz (71/84): adding to final database dump
0011.892 (0) backup_2017-05-13-1108_Young_Foodies_2ba4fb78b516-db-table-wp_swpm_membership_tbl.table.gz (72/84): adding to final database dump
0011.893 (0) backup_2017-05-13-1108_Young_Foodies_2ba4fb78b516-db-table-wp_swpm_payments_tbl.table.gz (73/84): adding to final database dump
0011.895 (0) backup_2017-05-13-1108_Young_Foodies_2ba4fb78b516-db-table-wp_um_conversations.table.gz (74/84): adding to final database dump
0011.897 (0) backup_2017-05-13-1108_Young_Foodies_2ba4fb78b516-db-table-wp_um_followers.table.gz (75/84): adding to final database dump
0011.897 (0) backup_2017-05-13-1108_Young_Foodies_2ba4fb78b516-db-table-wp_um_friends.table.gz (76/84): adding to final database dump
0011.898 (0) backup_2017-05-13-1108_Young_Foodies_2ba4fb78b516-db-table-wp_um_messages.table.gz (77/84): adding to final database dump
0011.899 (0) backup_2017-05-13-1108_Young_Foodies_2ba4fb78b516-db-table-wp_um_notifications.table.gz (78/84): adding to final database dump
0011.900 (0) backup_2017-05-13-1108_Young_Foodies_2ba4fb78b516-db-table-wp_wonderplugin_carousel.table.gz (79/84): adding to final database dump
0011.901 (0) backup_2017-05-13-1108_Young_Foodies_2ba4fb78b516-db-table-wp_wp_rp_tags.table.gz (80/84): adding to final database dump
0011.903 (0) backup_2017-05-13-1108_Young_Foodies_2ba4fb78b516-db-table-wp_wpeditor_settings.table.gz (81/84): adding to final database dump
0011.905 (0) backup_2017-05-13-1108_Young_Foodies_2ba4fb78b516-db-table-wp_wpuf_transaction.table.gz (82/84): adding to final database dump
0011.910 (0) backup_2017-05-13-1108_Young_Foodies_2ba4fb78b516-db-table-wp_wti_like_post.table.gz (83/84): adding to final database dump
0011.912 (0) backup_2017-05-13-1108_Young_Foodies_2ba4fb78b516-db-table-wp_yuzoviews.table.gz (84/84): adding to final database dump
0011.912 (0) backup_2017-05-13-1108_Young_Foodies_2ba4fb78b516-db.gz: finished writing out complete database file (1864 KB)
0011.943 (0) Total database tables backed up: 84 (backup_2017-05-13-1108_Young_Foodies_2ba4fb78b516-db.gz, size: 1918251, sha256)
0011.950 (0) backup_2017-05-13-1108_Young_Foodies_2ba4fb78b516-plugins.zip: plugins: This file has not yet been successfully uploaded: will queue
0011.951 (0) backup_2017-05-13-1108_Young_Foodies_2ba4fb78b516-db.gz: db: This file has not yet been successfully uploaded: will queue
0011.953 (0) Saving backup history. Total backup size: 55.2 MB
0011.956 (0) Requesting upload of the files that have not yet been successfully uploaded (2)
0011.959 (0) Cloud backup selection (1/1): googledrive (last)
0011.960 (0) Beginning dispatch of backup to remote (googledrive)
0011.962 (0) Google Drive: requesting access token: client_id=15308565280-5q5h8a52jsc5v0k4d93dh5p0ae158gf9.apps.googleusercontent.com
0012.030 (0) Google Drive: successfully obtained access token
0012.868 (0) Google Drive quota usage: used=2939.8 MB, total=30720 MB, available=27780.2 MB
0012.871 (0) backup_2017-05-13-1108_Young_Foodies_2ba4fb78b516-plugins.zip: Attempting to upload to Google Drive (into folder id: 0B2gqpgOMQ50mVTVWVDk0TXNNdUU)
0013.209 (0) Googledrive chunked upload: 1.9 % uploaded (1048576)
0013.334 (0) Googledrive chunked upload: 3.7 % uploaded (2097152)
0013.430 (0) Googledrive chunked upload: 5.6 % uploaded (3145728)
0013.548 (0) Googledrive chunked upload: 7.5 % uploaded (4194304)
0013.661 (0) Googledrive chunked upload: 9.4 % uploaded (5242880)
0013.751 (0) Googledrive chunked upload: 11.2 % uploaded (6291456)
0013.865 (0) Googledrive chunked upload: 13.1 % uploaded (7340032)
0013.973 (0) Googledrive chunked upload: 15 % uploaded (8388608)
0014.075 (0) Googledrive chunked upload: 16.8 % uploaded (9437184)
0014.174 (0) Googledrive chunked upload: 18.7 % uploaded (10485760)
0014.306 (0) Googledrive chunked upload: 20.6 % uploaded (11534336)
0014.426 (0) Googledrive chunked upload: 22.5 % uploaded (12582912)
0014.533 (0) Googledrive chunked upload: 24.3 % uploaded (13631488)
0014.643 (0) Googledrive chunked upload: 26.2 % uploaded (14680064)
0014.751 (0) Googledrive chunked upload: 28.1 % uploaded (15728640)
0014.861 (0) Googledrive chunked upload: 30 % uploaded (16777216)
0014.973 (0) Googledrive chunked upload: 31.8 % uploaded (17825792)
0015.074 (0) Googledrive chunked upload: 33.7 % uploaded (18874368)
0015.191 (0) Googledrive chunked upload: 35.6 % uploaded (19922944)
0015.305 (0) Googledrive chunked upload: 37.4 % uploaded (20971520)
0015.408 (0) Googledrive chunked upload: 39.3 % uploaded (22020096)
0015.519 (0) Googledrive chunked upload: 41.2 % uploaded (23068672)
0015.629 (0) Googledrive chunked upload: 43.1 % uploaded (24117248)
0015.731 (0) Googledrive chunked upload: 44.9 % uploaded (25165824)
0015.877 (0) Googledrive chunked upload: 46.8 % uploaded (26214400)
0016.039 (0) Googledrive chunked upload: 48.7 % uploaded (27262976)
0016.207 (0) Googledrive chunked upload: 50.5 % uploaded (28311552)
0016.382 (0) Googledrive chunked upload: 52.4 % uploaded (29360128)
0016.541 (0) Googledrive chunked upload: 54.3 % uploaded (30408704)
0016.703 (0) Googledrive chunked upload: 56.2 % uploaded (31457280)
0016.887 (0) Googledrive chunked upload: 58 % uploaded (32505856)
0017.025 (0) Googledrive chunked upload: 59.9 % uploaded (33554432)
0017.175 (0) Googledrive chunked upload: 61.8 % uploaded (34603008)
0017.347 (0) Googledrive chunked upload: 63.6 % uploaded (35651584)
0017.511 (0) Googledrive chunked upload: 65.5 % uploaded (36700160)
0017.664 (0) Googledrive chunked upload: 67.4 % uploaded (37748736)
0017.803 (0) Googledrive chunked upload: 69.3 % uploaded (38797312)
0017.962 (0) Googledrive chunked upload: 71.1 % uploaded (39845888)
0018.135 (0) Googledrive chunked upload: 73 % uploaded (40894464)
0018.279 (0) Googledrive chunked upload: 74.9 % uploaded (41943040)
0018.445 (0) Googledrive chunked upload: 76.8 % uploaded (42991616)
0018.602 (0) Googledrive chunked upload: 78.6 % uploaded (44040192)
0018.740 (0) Googledrive chunked upload: 80.5 % uploaded (45088768)
0018.971 (0) Googledrive chunked upload: 82.4 % uploaded (46137344)
0019.112 (0) Googledrive chunked upload: 84.2 % uploaded (47185920)
0019.255 (0) Googledrive chunked upload: 86.1 % uploaded (48234496)
0019.386 (0) Googledrive chunked upload: 88 % uploaded (49283072)
0019.542 (0) Googledrive chunked upload: 89.9 % uploaded (50331648)
0019.674 (0) Googledrive chunked upload: 91.7 % uploaded (51380224)
0019.812 (0) Googledrive chunked upload: 93.6 % uploaded (52428800)
0019.993 (0) Googledrive chunked upload: 95.5 % uploaded (53477376)
0020.146 (0) Googledrive chunked upload: 97.3 % uploaded (54525952)
0020.301 (0) Googledrive chunked upload: 99.2 % uploaded (55574528)
0021.184 (0) Googledrive chunked upload: 100 % uploaded (55574528)
0021.195 (0) OK: Archive backup_2017-05-13-1108_Young_Foodies_2ba4fb78b516-plugins.zip uploaded to Google Drive in 8.32 seconds
0021.199 (0) Recording as successfully uploaded: backup_2017-05-13-1108_Young_Foodies_2ba4fb78b516-plugins.zip (e9754015b3211d58dc1673bf724ccbda)
0021.215 (0) Deleting local file: backup_2017-05-13-1108_Young_Foodies_2ba4fb78b516-plugins.zip: OK
0021.471 (0) Google Drive quota usage: used=2993.3 MB, total=30720 MB, available=27726.7 MB
0021.479 (0) backup_2017-05-13-1108_Young_Foodies_2ba4fb78b516-db.gz: Attempting to upload to Google Drive (into folder id: 0B2gqpgOMQ50mVTVWVDk0TXNNdUU)
0021.844 (0) Googledrive chunked upload: 54.7 % uploaded (1048576)
0022.608 (0) Googledrive chunked upload: 100 % uploaded (1048576)
0022.613 (0) OK: Archive backup_2017-05-13-1108_Young_Foodies_2ba4fb78b516-db.gz uploaded to Google Drive in 1.13 seconds
0022.615 (0) Recording as successfully uploaded: backup_2017-05-13-1108_Young_Foodies_2ba4fb78b516-db.gz (45795142a746d4ecbd1aa8e36e3542c8)
0022.619 (0) Deleting local file: backup_2017-05-13-1108_Young_Foodies_2ba4fb78b516-db.gz: OK
0022.626 (0) Retain: beginning examination of existing backup sets; user setting: retain_files=25, retain_db=25
0022.628 (0) Number of backup sets in history: 6; groups (db): 1
0022.629 (0) Examining (for databases) backup set with group_id=0, nonce=2ba4fb78b516, datestamp=1494670094 (May 13 2017 10:08:14)
0022.630 (0) This backup set is the backup set just made, so will not be deleted.
0022.631 (0) Examining (for databases) backup set with group_id=0, nonce=f8e204d16afd, datestamp=1494670063 (May 13 2017 10:07:43)
0022.632 (0) This backup set (1494670063) was an automatic backup, and we have not yet reached any retain limits, so it will not be counted or pruned. Skipping.
0022.632 (0) Examining (for databases) backup set with group_id=0, nonce=65bebb545dde, datestamp=1494670036 (May 13 2017 10:07:16)
0022.633 (0) This backup set (1494670036) was an automatic backup, and we have not yet reached any retain limits, so it will not be counted or pruned. Skipping.
0022.634 (0) Examining (for databases) backup set with group_id=0, nonce=21ecbab58881, datestamp=1494670007 (May 13 2017 10:06:47)
0022.635 (0) This backup set (1494670007) was an automatic backup, and we have not yet reached any retain limits, so it will not be counted or pruned. Skipping.
0022.636 (0) Examining (for databases) backup set with group_id=0, nonce=634537547fc4, datestamp=1494669948 (May 13 2017 10:05:48)
0022.637 (0) This backup set (1494669948) was an automatic backup, and we have not yet reached any retain limits, so it will not be counted or pruned. Skipping.
0022.638 (0) Examining (for databases) backup set with group_id=0, nonce=098887603a23, datestamp=1494403568 (May 10 2017 08:06:08)
0022.638 (0) This backup set remains non-empty (f=1/d=1); will retain in history
0022.639 (0) Number of backup sets in history: 6; groups (files): 1
0022.642 (0) Examining (for files) backup set with nonce=2ba4fb78b516, datestamp=1494670094 (May 13 2017 10:08:14)
0022.643 (0) This backup set is the backup set just made, so will not be deleted.
0022.644 (0) This backup set remains non-empty (f=1/d=1); will retain in history
0022.645 (0) Examining (for files) backup set with nonce=f8e204d16afd, datestamp=1494670063 (May 13 2017 10:07:43)
0022.646 (0) This backup set (1494670063) was an automatic backup, and we have not yet reached any retain limits, so it will not be counted or pruned. Skipping.
0022.646 (0) This backup set remains non-empty (f=1/d=1); will retain in history
0022.648 (0) Examining (for files) backup set with nonce=65bebb545dde, datestamp=1494670036 (May 13 2017 10:07:16)
0022.649 (0) This backup set (1494670036) was an automatic backup, and we have not yet reached any retain limits, so it will not be counted or pruned. Skipping.
0022.649 (0) This backup set remains non-empty (f=1/d=1); will retain in history
0022.650 (0) Examining (for files) backup set with nonce=21ecbab58881, datestamp=1494670007 (May 13 2017 10:06:47)
0022.651 (0) This backup set (1494670007) was an automatic backup, and we have not yet reached any retain limits, so it will not be counted or pruned. Skipping.
0022.652 (0) This backup set remains non-empty (f=1/d=1); will retain in history
0022.653 (0) Examining (for files) backup set with nonce=634537547fc4, datestamp=1494669948 (May 13 2017 10:05:48)
0022.654 (0) This backup set (1494669948) was an automatic backup, and we have not yet reached any retain limits, so it will not be counted or pruned. Skipping.
0022.654 (0) This backup set remains non-empty (f=1/d=1); will retain in history
0022.656 (0) Examining (for files) backup set with nonce=098887603a23, datestamp=1494403568 (May 10 2017 08:06:08)
0022.657 (0) This backup set remains non-empty (f=1/d=1); will retain in history
0022.657 (0) Retain: saving new backup history (sets now: 6) and finishing retain operation
0022.661 (0) Resume backup (2ba4fb78b516, 0): finish run
0022.663 (0) Decremented the semaphore (fd) by 1
0022.664 (0) Semaphore (fd) unlocked
0022.665 (0) There were no errors in the uploads, so the 'resume' event (1) is being unscheduled
0022.670 (0) Sending email ('Files and database (Full backup)') report (attachments: 0, size: 64.3 KB) to: thead...
0023.928 (0) The backup apparently succeeded and is now complete
